{
  "message": "Items added as supplements now more reliably are added at sane position among your items at the end of the list, instead of arbitrarily first, in middle, or any other random position.",
  "type": "Changelog",
  "issue": "4047"
}
