{
  "message": "Invalid spell levels are now marked with warnings with various interface elements removed for them. This for now also includes prepared casters recording spells of levels they're incapable of casting.",
  "type": "Changelog",
  "issue": ""
}
